digraph {
    html -> head;
    html -> body;

    head -> title;
    head -> link;
    head -> script;
    head -> meta;

    body -> div1;
    body -> div2;
    body -> div3;
    body -> div4;
}


//dot nodo.dot | display para ejecutar

